HW2-EDA with R - Part1: Plotting
…
Repeat the histogram but only for counties with less than 2.5 million people.

county2.5 <- county_df %>% select (County, TotalPop, Income) %>% group_by(County) %>% filter(TotalPop < 2500000)
county2.5

## # A tibble: 3,134 x 3
## # Groups:   County [1,847]
##    County   TotalPop Income
##    <fct>       <int>  <int>
##  1 Etowah     103766  39220
##  2 Winston     24130  33194
##  3 Escambia    37935  32330
##  4 Autauga     55221  51281
##  5 Baldwin    195121  50254
##  6 Barbour     26932  32964
##  7 Bibb        22604  38678
##  8 Blount      57710  45813
##  9 Bullock     10678  31938
## 10 Butler      20354  32229
## # ... with 3,124 more rows
…
